\relax 
\@writefile{toc}{\contentsline {section}{\numberline {1}\hskip -1em.\nobreakspace  {}Introduction}{1}}
\@writefile{toc}{\contentsline {section}{\numberline {2}\hskip -1em.\nobreakspace  {}PADIMapNoReduce Architecture}{1}}
\@writefile{toc}{\contentsline {subsection}{\numberline {2.1}System Components}{1}}
\newlabel{fig:overview}{{2.1}{1}}
\@writefile{lof}{\contentsline {figure}{\numberline {1}{\ignorespaces Overview of the system}}{1}}
\@writefile{toc}{\contentsline {subsubsection}{\numberline {2.1.1}Client}{1}}
\@writefile{toc}{\contentsline {subsubsection}{\numberline {2.1.2}JobTracker}{2}}
\newlabel{fig:worker_state}{{2.1.2}{2}}
\@writefile{lof}{\contentsline {figure}{\numberline {2}{\ignorespaces The Worker nodes in the system can be in one of three states. The JobTracker closely monitors the Workers, and makes decisions based on their current state, which can result in a change of state}}{2}}
\@writefile{toc}{\contentsline {subsubsection}{\numberline {2.1.3}Worker}{3}}
\@writefile{toc}{\contentsline {subsubsection}{\numberline {2.1.4}PuppetMaster}{3}}
\@writefile{toc}{\contentsline {subsection}{\numberline {2.2}\hskip -1em.\nobreakspace  {}Fault Tolerance}{3}}
\@writefile{toc}{\contentsline {subsubsection}{\numberline {2.2.1}Workers Fault Tolerance}{3}}
\@writefile{lof}{\contentsline {figure}{\numberline {3}{\ignorespaces A possible way for a JobTracker to choose each Worker's Best Friend would be to layout the Workers in a circle. Each Worker's Best Friend would be the one next to it in the circle. The actual order of the Workers is irrelevant. The JobTracker doesn't have a Best Friend, since it doesn't need to backup input or mapping data.}}{3}}
\newlabel{fig:choosing_best_friends}{{3}{3}}
\@writefile{toc}{\contentsline {subsubsection}{\numberline {2.2.2}JobTrackers Fault Tolerance}{3}}
\@writefile{lof}{\contentsline {figure}{\numberline {4}{\ignorespaces In case a Worker is tasked to continue the work of a Frozen Worker, he will proceed with the following steps: (1) Ask the Back Up Worker (i.e. the Frozen Worker's Best Friend) for the input file (2) Back Up will return the input file (3) Ask the Back Up for the partial result that was kept (4) Back Up will return all the pairs that were saved (5) Make a back up on the input file at its Best Friend (6) Continue with the mapping, starting where the back up was last made (7) Once the threshold is reached, back up the result.}}{4}}
\newlabel{fig:best_friend_and_back_up}{{4}{4}}
\@writefile{toc}{\contentsline {section}{\numberline {3}\hskip -1em.\nobreakspace  {}Conclusions}{4}}
